<?xml version="1.0" encoding="utf-8"?>
<!-- Generator: Adobe Illustrator 19.0.1, SVG Export Plug-In . SVG Version: 6.00 Build 0)  -->
<svg version="1.1" id="Слой_1" xmlns="http://www.w3.org/2000/svg" xmlns:xlink="http://www.w3.org/1999/xlink" x="0px" y="0px"
	 width="39px" height="24px" viewBox="0 0 39 24" enable-background="new 0 0 39 24" xml:space="preserve">
<g>
	
		<line fill="none" stroke="#E4C291" stroke-width="4" stroke-linecap="round" stroke-miterlimit="10" x1="2.8292737" y1="12.2569532" x2="36.6590691" y2="12.2569532"/>
	
		<line fill="none" stroke="#E4C291" stroke-width="4" stroke-linecap="round" stroke-miterlimit="10" x1="26.6590672" y1="22.2569599" x2="36.6590691" y2="12.2569532"/>
	
		<line fill="none" stroke="#E4C291" stroke-width="4" stroke-linecap="round" stroke-miterlimit="10" x1="36.6590729" y1="12.2569532" x2="26.6590633" y2="2.256953"/>
</g>
</svg>
