<?xml version="1.0" encoding="utf-8"?>
<!-- Generator: Adobe Illustrator 18.0.0, SVG Export Plug-In . SVG Version: 6.00 Build 0)  -->
<!DOCTYPE svg PUBLIC "-//W3C//DTD SVG 1.1//EN" "http://www.w3.org/Graphics/SVG/1.1/DTD/svg11.dtd">
<svg version="1.1" id="Слой_1" xmlns="http://www.w3.org/2000/svg" xmlns:xlink="http://www.w3.org/1999/xlink" x="0px" y="0px"
	 viewBox="0 0 10 20" enable-background="new 0 0 10 20" xml:space="preserve">
<g id="Institutes-desktop_43_" transform="translate(-1461.000000, -26.000000)">
	<g id="Group-7_43_" transform="translate(-1.000000, 1.000000)">
		<path id="Facebook_13_" fill="#E4C291" d="M1464.4,29.1v2.7h-2V35h2v9.6h4.1V35h2.7c0,0,0.3-1.6,0.4-3.3h-3.1v-2.2
			c0-0.3,0.4-0.8,0.9-0.8h2.2v-3.4h-3C1464.3,25.3,1464.4,28.6,1464.4,29.1z"/>
	</g>
</g>
</svg>
