<?xml version="1.0" encoding="utf-8"?>
<!-- Generator: Adobe Illustrator 18.0.0, SVG Export Plug-In . SVG Version: 6.00 Build 0)  -->
<!DOCTYPE svg PUBLIC "-//W3C//DTD SVG 1.1//EN" "http://www.w3.org/Graphics/SVG/1.1/DTD/svg11.dtd">
<svg version="1.1" id="Слой_1" xmlns="http://www.w3.org/2000/svg" xmlns:xlink="http://www.w3.org/1999/xlink" x="0px" y="0px"
	 width="50px" height="20px" viewBox="0 0 50 20" enable-background="new 0 0 50 20" xml:space="preserve">
<g id="Institutes-desktop_43_" transform="translate(-1461.000000, -26.000000)">
	<g id="Group-7_43_" transform="translate(-1.000000, 1.000000)">
		<path id="Facebook_13_" fill="#E4C291" d="M1464.8,29.4v2.7h-2v3.2h2V45h4.1v-9.6h2.7c0,0,0.3-1.6,0.4-3.3h-3.1v-2.2
			c0-0.3,0.4-0.8,0.9-0.8h2.2v-3.4h-3C1464.7,25.7,1464.8,29,1464.8,29.4z"/>
	</g>
</g>
<g id="Institutes-desktop_44_" transform="translate(-1501.000000, -27.000000)">
	<g id="Group-7_44_" transform="translate(-1.000000, 1.000000)">
		<path id="Twitter_13_" fill="#E4C291" d="M1519.3,46c-2.9,0.2-5-0.8-6.9-2c2.1,0.3,4.8-0.5,6.3-1.9c-2.1-0.2-3.4-1.4-4-3.2
			c0.6,0.2,1.3,0,1.8,0c-1.9-0.7-3.2-1.9-3.4-4.6c0.5,0.3,1.1,0.5,1.8,0.5c-1.4-0.8-2.4-4.1-1.3-6.1c2.1,2.4,4.7,4.4,8.8,4.7
			c-1.1-4.7,5-7.3,7.4-4.1c1.1-0.2,1.9-0.7,2.7-1c-0.3,1.2-1,1.9-1.8,2.5c0.8-0.2,1.6-0.3,2.3-0.7c-0.2,0.8-1,1.5-1.8,2.2
			C1531.1,40.2,1526.4,45.6,1519.3,46z"/>
	</g>
</g>
<g>
	<circle fill="#E3C190" cx="34.2" cy="4.2" r="2.2"/>
	<path fill="#E3C190" d="M38,8l0,12h3.8l0-6c0-1.6,0.6-3.1,2.6-3.1c1.9,0,1.9,1.8,1.9,3.2V20h3.7v-6.6c0-3.3-0.7-5.8-4.6-5.8
		c-1.9,0-3.1,1-3.6,2h-0.1V8H38z M32,8h3.7v12H32V8z"/>
</g>
</svg>
