<?xml version="1.0" encoding="utf-8"?>
<!-- Generator: Adobe Illustrator 19.0.1, SVG Export Plug-In . SVG Version: 6.00 Build 0)  -->
<svg version="1.1" id="Слой_1" xmlns="http://www.w3.org/2000/svg" xmlns:xlink="http://www.w3.org/1999/xlink" x="0px" y="0px"
	 viewBox="0 0 212 24" style="enable-background:new 0 0 212 24;" xml:space="preserve">
<style type="text/css">
	.st0{fill:none;stroke:#E0C192;stroke-width:4;stroke-linecap:round;stroke-miterlimit:10;}
</style>
<g>
	<g>
		<line class="st0" x1="96" y1="12" x2="2.5" y2="12"/>
		<line class="st0" x1="12.5" y1="2" x2="2.5" y2="12"/>
		<line class="st0" x1="2.5" y1="12" x2="12.5" y2="22"/>
	</g>
	<g>
		<line class="st0" x1="116" y1="12" x2="209.4" y2="12"/>
		<line class="st0" x1="199.4" y1="22" x2="209.4" y2="12"/>
		<line class="st0" x1="209.4" y1="12" x2="199.4" y2="2"/>
	</g>
</g>
</svg>
